{
    "name": "release_widget",
    "gettext-vue": {
        "release_widget": {
            "scripts": "scripts/",
            "po": "scripts/releasewidget/po"
        }
    },
    "components": [
        "themes/",
        "scripts/"
    ]
}
